{
  "project_info": {
    "project_number": "909613326518",
    "firebase_url": "https://the-day-c7931-default-rtdb.firebaseio.com",
    "project_id": "the-day-c7931",
    "storage_bucket": "the-day-c7931.appspot.com"
  },
  "client": [
    {
      "client_info": {
        "mobilesdk_app_id": "1:909613326518:android:004a0a3ff9616e3c78c617",
        "android_client_info": {
          "package_name": "com.example.theday"
        }
      },
      "oauth_client": [
        {
          "client_id": "909613326518-6moskf9c79d933h8cfumia8apdgqo26u.apps.googleusercontent.com",
          "client_type": 1,
          "android_info": {
            "package_name": "com.example.theday",
            "certificate_hash": "5e841787e51648c934fdd40018e90f30372f2ece"
          }
        },
        {
          "client_id": "909613326518-ksaa6lns235uadr0j8a9lsl7qrk07dld.apps.googleusercontent.com",
          "client_type": 3
        }
      ],
      "api_key": [
        {
          "current_key": "AIzaSyCRH8PbmTO-HCzG4VCFzZaQZuaylcl9WdI"
        }
      ],
      "services": {
        "appinvite_service": {
          "other_platform_oauth_client": [
            {
              "client_id": "909613326518-ksaa6lns235uadr0j8a9lsl7qrk07dld.apps.googleusercontent.com",
              "client_type": 3
            }
          ]
        }
      }
    }
  ],
  "configuration_version": "1"
}